Rob McDonnell - Brazilian Legislative Data with congressbr
…
states
## # A tibble: 82 x 5
##    senator_state senator_vote     n  summ  perc
##    <chr>         <chr>        <int> <int> <dbl>
##  1 AC            0               30    81  37.0
##  2 AC            1               29    81  35.8
##  3 AC            2               22    81  27.2
##  4 AL            0               16    81  19.8
##  5 AL            1               27    81  33.3
##  6 AL            2               38    81  46.9
##  7 AM            0               27    81  33.3
##  8 AM            1               38    81  46.9
##  9 AM            2               16    81  19.8
## 10 AP            0               38    81  46.9
## # … with 72 more rows
…
